<?xml version="1.0" encoding="utf-8"?>
<!-- Generator: Adobe Illustrator 21.0.0, SVG Export Plug-In . SVG Version: 6.00 Build 0)  -->
<svg version="1.1" id="Capa_1" xmlns="http://www.w3.org/2000/svg" xmlns:xlink="http://www.w3.org/1999/xlink" x="0px" y="0px"
	 viewBox="0 0 1604.5 467.2" style="enable-background:new 0 0 1604.5 467.2;" xml:space="preserve">
<style type="text/css">
	.st0{fill:#AA6102;}
	.st1{fill:#F17C3A;}
	.st2{fill:#F5A641;}
	.st3{fill:#EE5935;}
	.st4{fill:#FFFFFF;}
	.st5{fill:none;stroke:#000000;stroke-width:4;stroke-miterlimit:10;}
	.st6{fill:none;}
	.st7{font-family:'HirukoW01-Light';}
	.st8{font-size:505px;}
	.st9{font-size:121px;}
</style>
<g>
	<path class="st0" d="M1889.5-2919.1"/>
	<g>
		<path class="st1" d="M2160.1-2566.9c-25.4-16.9-45.4-42.4-55.3-72.4c-7.3-22.2-11-47-10.6-71.9c0.4-24.4,4.7-48.4,12.4-69.2
			c5.3-14.3,12.1-27.7,20.2-39.8c16.6-25,38.5-44.8,63.4-57.2c6.4-3.2,12.7-6.1,19.5-8.3c20.5-6.5,47.6-6.3,61.4,13.2
			c6,8.5,9,18.1,8.8,26c-1.1,47.8,9,58.5,28.8,76.8c25.1,23.2,31.6,53.6,35.6,78.9c4.7,29.7-1.5,58.7-18.4,86.1
			c-4.5,7.4-9.6,14.2-15,20.3c-9.9,11.2-21.2,20.4-33.4,26.9c-10,5.4-20.5,9.1-31.3,10.9c-1.8,0.3-3.7,0.6-5.6,0.8
			c-10.1,1.2-20.4,0.8-31-1.1C2191.8-2550,2175-2557,2160.1-2566.9z"/>
		<path class="st2" d="M2288.4-2793.1c-39,36.9-40.8,172,22.4,208.3c0,0,35-33.4,35-91.9c0-28.7-10.9-69-36.1-93.9
			C2286.8-2793.1,2288.4-2793.1,2288.4-2793.1z"/>
		<path class="st3" d="M2226.6-2886.9c0.1-2.7,0.2-4.9-20.5,2.4c-4.7,1.7-12.4,5.3-17.8,8c-25.8,12.8-51.5,37.6-68.1,66.8
			c-17.4,30.6-25.2,65.9-25.9,92.9c-1.8,70.3,21.4,113.6,58.3,144.9c14.6,12.3,35.2,20.7,53.3,24.4c19.1,4,34.4,2.7,35.1,1.7
			c5.9-8.4-107.2-47-111.7-157.3C2125.5-2798.2,2226.3-2871.7,2226.6-2886.9z"/>
	</g>
	<rect x="766.6" y="-2922.6" class="st6" width="1579.2" height="661.6"/>
	<text transform="matrix(1 0 0 1 766.5775 -2544.187)" style="font-family:'zAristaLight'; font-size:593px;">mang</text>
	<rect x="2058.7" y="-2529.6" class="st6" width="322.5" height="107.2"/>
	<text transform="matrix(1 0 0 1 2058.748 -2452.3408)" class="st9" style="font-family:'zAristaLight';">hostel</text>
</g>
<g>
	<path class="st0" d="M-917-1825.9"/>
	<g>
		<path class="st1" d="M-646.5-1473.8c-25.4-16.9-45.4-42.4-55.3-72.4c-7.3-22.2-11-47-10.6-71.9c0.4-24.4,4.7-48.4,12.4-69.2
			c5.3-14.3,12.1-27.7,20.2-39.8c16.6-25,38.5-44.8,63.4-57.2c6.4-3.2,12.7-6.1,19.5-8.3c20.5-6.5,47.6-6.3,61.4,13.2
			c6,8.5,9,18.1,8.8,26c-1.1,47.8,9,58.5,28.8,76.8c25.1,23.2,31.6,53.6,35.6,78.9c4.7,29.7-1.5,58.7-18.4,86.1
			c-4.5,7.4-9.6,14.2-15,20.3c-9.9,11.2-21.2,20.4-33.4,26.9c-10,5.4-20.5,9.1-31.3,10.9c-1.8,0.3-3.7,0.6-5.6,0.8
			c-10.1,1.2-20.4,0.8-31-1.1C-614.7-1456.9-631.5-1463.8-646.5-1473.8z"/>
		<path class="st2" d="M-518.1-1700c-39,36.9-40.8,172,22.4,208.3c0,0,35-33.4,35-91.9c0-28.7-10.9-69-36.1-93.9
			C-519.7-1700-518.1-1700-518.1-1700z"/>
		<path class="st3" d="M-579.9-1793.8c0.1-2.7,0.2-4.9-20.5,2.4c-4.7,1.7-12.4,5.3-17.8,8c-25.8,12.8-51.5,37.6-68.1,66.8
			c-17.4,30.6-25.2,65.9-25.9,92.9c-1.8,70.3,21.4,113.6,58.3,144.9c14.6,12.3,35.2,20.7,53.3,24.4c19.1,4,34.4,2.7,35.1,1.7
			c5.9-8.4-107.2-47-111.7-157.3C-681-1705-580.2-1778.6-579.9-1793.8z"/>
	</g>
	<g>
		<path class="st4" d="M-1833.9-1620.9c0-9.1-1.9-17.7-5.6-25.8c-3.7-8.1-8.6-15.1-14.6-21.2c-6.1-6.1-13.1-10.9-21.2-14.6
			c-8.1-3.7-16.7-5.6-25.8-5.6c-8.8,0-17.2,0.9-25.2,2.8c-8.1,1.9-15.2,5.2-21.5,10.1c-6.2,4.9-11.2,11.4-14.9,19.7
			c-3.7,8.3-5.6,18.6-5.6,31.1v131.8c0,5.7-2.2,10.6-6.6,14.6c-4.4,4-9.3,6.1-14.6,6.1c-5.7,0-10.8-2-15.1-6.1
			c-4.4-4-6.6-8.9-6.6-14.6v-215.1c0-5.7,2.2-10.6,6.6-14.6c4.4-4,9.4-6.1,15.1-6.1c5,0,9.8,1.9,14.1,5.8c4.4,3.9,6.7,8.5,7.1,13.9
			c18.5-14.5,40.7-21.7,66.7-21.7c17.8,0,34.5,3.8,50,11.4c15.5,7.6,28.4,17.9,38.9,31.1c10.1-13.1,22.9-23.5,38.4-31.1
			c15.5-7.6,32.1-11.4,50-11.4c14.5,0,28.4,2.7,41.9,8.1c13.5,5.4,25.2,12.8,35.4,22.2c10.1,9.4,18.2,20.4,24.2,32.8
			c6.1,12.5,9.1,25.9,9.1,40.4v134.3c0,5.7-2.2,10.6-6.6,14.6c-4.4,4-9.3,6.1-14.6,6.1c-5.7,0-10.8-2-15.1-6.1
			c-4.4-4-6.6-8.9-6.6-14.6v-128.3c0-9.1-1.9-17.7-5.6-25.8c-3.7-8.1-8.6-15.1-14.6-21.2c-6.1-6.1-13.1-10.9-21.2-14.6
			c-8.1-3.7-16.7-5.6-25.8-5.6c-8.8,0-17.2,1.6-25.2,4.8c-8.1,3.2-15.3,7.7-21.7,13.4c-6.4,5.7-11.5,12.4-15.4,19.9
			c-3.9,7.6-5.8,15.6-5.8,24v133.3c0,6.1-2.1,11-6.3,14.9c-4.2,3.9-8.8,5.8-13.9,5.8c-5.7,0-10.8-2-15.1-6.1
			c-4.4-4-6.6-8.9-6.6-14.6V-1620.9z"/>
		<path class="st4" d="M-1363.2-1707.8c0-5.7,2.2-10.6,6.6-14.6c4.4-4,9.4-6.1,15.2-6.1c5.4,0,10.3,2,14.6,6.1
			c4.4,4,6.6,8.9,6.6,14.6v215.1c0,5.7-2.2,10.6-6.6,14.6c-4.4,4-9.3,6.1-14.6,6.1c-5.7,0-10.8-2-15.2-6.1c-4.4-4-6.6-8.9-6.6-14.6
			v-10.6c-11.8,10.4-25,18.6-39.6,24.5c-14.6,5.9-30.4,8.8-47.2,8.8c-18.2,0-35.2-3.4-51-10.1c-15.8-6.7-29.7-16.1-41.7-28
			c-12-11.9-21.3-25.8-28-41.7c-6.7-15.8-10.1-32.8-10.1-51c0-17.8,3.4-34.7,10.1-50.5c6.7-15.8,16.1-29.6,28-41.4
			c11.9-11.8,25.8-21,41.7-27.8c15.8-6.7,32.8-10.1,51-10.1c16.8,0,32.6,3,47.2,8.8c14.6,5.9,27.9,14.1,39.6,24.5V-1707.8z
			 M-1537.5-1600.7c0,12.1,2.3,23.6,6.8,34.3c4.5,10.8,10.7,20,18.4,27.8c7.7,7.7,17,13.9,27.8,18.4c10.8,4.5,22.2,6.8,34.3,6.8
			s23.5-2.3,34.1-6.8c10.6-4.5,19.8-10.7,27.5-18.4c7.7-7.7,13.9-17,18.4-27.8c4.5-10.8,6.8-22.2,6.8-34.3s-2.3-23.5-6.8-34.1
			c-4.5-10.6-10.7-19.8-18.4-27.5c-7.7-7.7-16.9-13.9-27.5-18.4s-22-6.8-34.1-6.8s-23.6,2.3-34.3,6.8c-10.8,4.5-20,10.7-27.8,18.4
			c-7.7,7.7-13.9,16.9-18.4,27.5C-1535.2-1624.2-1537.5-1612.9-1537.5-1600.7z"/>
		<path class="st4" d="M-1104.2-1620.9c0-9.1-1.9-17.7-5.6-25.8c-3.7-8.1-8.6-15.1-14.6-21.2c-6.1-6.1-13.1-10.9-21.2-14.6
			c-8.1-3.7-16.7-5.6-25.8-5.6c-8.8,0-17.2,1-25.2,3c-8.1,2-15.2,5.5-21.5,10.4c-6.2,4.9-11.2,11.5-14.9,19.9
			c-3.7,8.4-5.6,18.9-5.6,31.3v130.8c0,5.7-2.2,10.6-6.6,14.6c-4.4,4-9.3,6.1-14.6,6.1c-5.7,0-10.8-2-15.1-6.1
			c-4.4-4-6.6-8.9-6.6-14.6v-215.1c0-5.7,2.2-10.6,6.6-14.6c4.4-4,9.4-6.1,15.1-6.1c5,0,9.8,1.9,14.1,5.8c4.4,3.9,6.7,8.5,7.1,13.9
			c18.5-14.5,40.7-21.7,66.7-21.7c14.5,0,28.4,2.7,41.9,8.1c13.5,5.4,25.2,12.8,35.3,22.2c10.1,9.4,18.2,20.4,24.2,32.8
			c6.1,12.5,9.1,25.9,9.1,40.4v134.3c0,5.7-2.2,10.6-6.6,14.6c-4.4,4-9.3,6.1-14.6,6.1c-5.7,0-10.8-2-15.1-6.1
			c-4.4-4-6.6-8.9-6.6-14.6V-1620.9z"/>
		<path class="st4" d="M-1001.2-1396.2c-3.7-4.4-5.6-9.3-5.6-14.6c0-5.7,2.2-10.6,6.6-14.6c4.4-4,9.4-6.1,15.1-6.1
			c6.4,0,12.3,3.4,17.7,10.1c8.1,9.8,17.8,17,29,21.7c11.3,4.7,23.8,7.1,37.6,7.1c12.5,0,24.1-2.4,34.8-7.1
			c10.8-4.7,20.2-11.1,28.3-19.2c8.1-8.1,14.5-17.5,19.2-28.3c4.7-10.8,7.1-22.4,7.1-34.8v-21.7c-11.4,10.4-24.6,18.6-39.4,24.5
			c-14.8,5.9-30.6,8.8-47.5,8.8c-18.2,0-35.2-3.4-51-10.1c-15.8-6.7-29.7-16-41.7-27.8c-12-11.8-21.3-25.6-28-41.4
			c-6.7-15.8-10.1-32.7-10.1-50.5c0-18.2,3.4-35.2,10.1-51c6.7-15.8,16.1-29.7,28-41.7c11.9-11.9,25.8-21.3,41.7-28
			c15.8-6.7,32.8-10.1,51-10.1c16.8,0,32.7,3,47.5,8.8c14.8,5.9,27.9,14.1,39.4,24.5v-10.6c0-5.7,2.2-10.6,6.6-14.6
			c4.4-4,9.4-6.1,15.2-6.1c5.4,0,10.3,2,14.6,6.1c4.4,4,6.6,8.9,6.6,14.6v225.7c0,18.2-3.5,35.3-10.4,51.5
			c-6.9,16.2-16.3,30.1-28.3,41.9c-12,11.8-26,21.1-42.2,28c-16.2,6.9-33.3,10.4-51.5,10.4c-20.5,0-39.4-4-56.6-12.1
			C-974.4-1371-989-1382.1-1001.2-1396.2z M-981-1600.2c0,12.1,2.3,23.5,6.8,34.1c4.5,10.6,10.7,19.8,18.4,27.5
			c7.7,7.7,17,13.9,27.8,18.4c10.8,4.5,22.2,6.8,34.3,6.8s23.5-2.3,34.1-6.8c10.6-4.5,19.8-10.7,27.5-18.4
			c7.7-7.7,13.9-16.9,18.4-27.5c4.5-10.6,6.8-22,6.8-34.1s-2.3-23.6-6.8-34.3c-4.5-10.8-10.7-20-18.4-27.8
			c-7.7-7.7-16.9-13.9-27.5-18.4s-22-6.8-34.1-6.8s-23.6,2.3-34.3,6.8c-10.8,4.5-20,10.7-27.8,18.4c-7.7,7.7-13.9,17-18.4,27.8
			C-978.7-1623.8-981-1612.4-981-1600.2z"/>
	</g>
	<g>
		<path class="st4" d="M-737.9-1431.5c0-1.4,0.5-2.5,1.6-3.5c1-1,2.3-1.5,3.6-1.5c1.3,0,2.5,0.5,3.5,1.5c1,1,1.6,2.1,1.6,3.5v23.8
			c4.5-3.4,9.8-5.1,16-5.1c3.5,0,6.8,0.6,10,1.9c3.2,1.3,6,3.1,8.5,5.3c2.4,2.3,4.4,4.9,5.8,7.9c1.5,3,2.2,6.2,2.2,9.7v32.2
			c0,1.4-0.5,2.5-1.6,3.5c-1,1-2.2,1.5-3.5,1.5c-1.4,0-2.6-0.5-3.6-1.5c-1-1-1.6-2.1-1.6-3.5v-30.7c0-2.2-0.4-4.2-1.3-6.2
			c-0.9-1.9-2.1-3.6-3.5-5.1s-3.1-2.6-5.1-3.5c-1.9-0.9-4-1.3-6.2-1.3c-2.1,0-4.1,0.2-6.1,0.7c-1.9,0.5-3.7,1.3-5.1,2.5
			c-1.5,1.2-2.7,2.8-3.6,4.8c-0.9,2-1.3,4.5-1.3,7.5v31.3c0,0.7-0.2,1.4-0.5,1.9c0,0.1,0,0.1-0.1,0.2c0,0-0.1,0.1-0.1,0.2
			c-0.2,0.2-0.2,0.3-0.2,0.4c-0.4,0.5-0.8,0.8-1.1,1.1l-1,0.7c-0.1,0-0.2,0-0.2,0.1c-0.1,0-0.2,0.1-0.2,0.1c-0.5,0.2-0.8,0.2-1,0.2
			c-0.2,0.1-0.4,0.1-0.7,0.1h-0.5c-0.1,0-0.1,0-0.2-0.1c0,0-0.1-0.1-0.2-0.1c-0.2,0-0.3,0-0.4-0.1c-0.1,0-0.3-0.1-0.4-0.1
			c-0.6-0.2-1.2-0.5-1.6-0.8c-0.2-0.1-0.4-0.3-0.7-0.6c0-0.1-0.1-0.2-0.2-0.4c-0.6-0.6-0.9-1.3-1-2.1V-1431.5z"/>
		<path class="st4" d="M-677.2-1381.6c0-4.3,0.8-8.3,2.4-12.1c1.6-3.8,3.9-7.1,6.7-9.9c2.9-2.8,6.2-5,10-6.7
			c3.8-1.6,7.9-2.4,12.2-2.4c4.3,0,8.3,0.8,12.1,2.4c3.8,1.6,7.1,3.8,9.9,6.7c2.8,2.8,5,6.1,6.7,9.9c1.6,3.8,2.4,7.8,2.4,12.1
			c0,4.4-0.8,8.4-2.4,12.2c-1.6,3.8-3.8,7.1-6.7,10c-2.8,2.9-6.1,5.1-9.9,6.7c-3.8,1.6-7.8,2.4-12.1,2.4c-4.4,0-8.4-0.8-12.2-2.4
			c-3.8-1.6-7.1-3.9-10-6.7c-2.9-2.9-5.1-6.2-6.7-10C-676.4-1373.2-677.2-1377.3-677.2-1381.6z M-666.8-1381.6
			c0,2.9,0.5,5.6,1.6,8.2c1.1,2.6,2.6,4.8,4.4,6.7c1.9,1.9,4.1,3.3,6.7,4.4c2.6,1.1,5.3,1.6,8.2,1.6s5.6-0.5,8.2-1.6
			s4.7-2.6,6.6-4.4c1.9-1.9,3.3-4.1,4.4-6.7c1.1-2.6,1.6-5.3,1.6-8.2s-0.5-5.6-1.6-8.2c-1.1-2.5-2.6-4.7-4.4-6.6
			c-1.9-1.9-4.1-3.3-6.6-4.4s-5.3-1.6-8.2-1.6s-5.6,0.5-8.2,1.6c-2.6,1.1-4.8,2.6-6.7,4.4c-1.9,1.9-3.3,4.1-4.4,6.6
			S-666.8-1384.5-666.8-1381.6z"/>
		<path class="st4" d="M-568.7-1366.7c0,2.1-0.4,4.1-1.3,6.1c-0.8,2-2.1,3.7-3.9,5.3c-1.7,1.5-3.9,2.8-6.4,3.7
			c-2.5,0.9-5.5,1.4-8.9,1.4c-2.3,0-4.6-0.3-6.8-0.9c-2.2-0.6-4.2-1.4-6-2.4c-1.8-1-3.2-2.1-4.3-3.4c-1.1-1.2-1.6-2.5-1.6-3.8
			c0-1.4,0.4-2.5,1.3-3.4c0.9-0.9,2.1-1.4,3.5-1.4c1.1,0,2.2,0.3,3.1,0.8c1,0.6,2,1.2,3.1,1.8c1.1,0.6,2.3,1.3,3.8,1.8
			c1.4,0.6,3.1,0.8,5.1,0.8c3.1,0,5.3-0.7,6.7-2c1.4-1.3,2.1-2.8,2.1-4.4c0-1.5-0.7-3.1-2.1-4.8c-1.4-1.7-3.8-3.3-7.2-5l-7.4-3.6
			c-4.3-2.1-7.3-4.5-9-7.3s-2.5-5.7-2.5-8.9c0-2.1,0.5-4.1,1.4-6c0.9-1.9,2.2-3.6,3.9-5.1c1.7-1.5,3.7-2.7,6.1-3.6
			c2.4-0.9,5-1.3,7.9-1.3c3.9,0,7.2,0.7,10.1,2.1c2.9,1.4,4.9,2.7,6,3.9c0.8,0.9,1.3,1.7,1.5,2.3c0.2,0.6,0.3,1.3,0.3,1.9
			c0,1-0.4,1.9-1.3,2.8c-0.9,0.9-2.1,1.4-3.6,1.4c-1.1,0-2.1-0.2-3-0.7c-0.9-0.4-1.8-0.9-2.7-1.5c-0.9-0.6-2-1.1-3.2-1.5
			c-1.2-0.4-2.7-0.7-4.5-0.7c-2.8,0-4.8,0.6-6,1.9c-1.2,1.3-1.8,2.6-1.8,3.9c0,1.6,0.5,3.1,1.6,4.4c1,1.3,3.1,2.7,6,4.2l8.8,4.6
			c4.4,2.3,7.4,4.9,9,7.7C-569.5-1372.7-568.7-1369.8-568.7-1366.7z"/>
		<path class="st4" d="M-546.1-1424.2c0-1.4,0.5-2.5,1.6-3.5c1-1,2.3-1.5,3.6-1.5c1.3,0,2.5,0.5,3.5,1.5c1,1,1.6,2.1,1.6,3.5v13.4
			h13.2c1.1,0,2.1,0.5,3,1.5c0.8,1,1.3,2,1.3,3.1c0,1.2-0.4,2.3-1.3,3.3c-0.8,1-1.8,1.5-3,1.5h-13.2v45.7c0,1.4-0.5,2.5-1.6,3.5
			c-1,1-2.2,1.5-3.5,1.5c-1.4,0-2.6-0.5-3.6-1.5c-1-1-1.6-2.1-1.6-3.5v-45.7h-13.2c-1.1,0-2.1-0.5-3-1.5c-0.8-1-1.3-2.1-1.3-3.3
			c0-1.1,0.4-2.2,1.3-3.1c0.8-1,1.8-1.5,3-1.5h13.2V-1424.2z"/>
		<path class="st4" d="M-485.2-1350.3c-4.4,0-8.4-0.8-12.2-2.4c-3.8-1.6-7.1-3.9-10-6.7c-2.9-2.9-5.1-6.2-6.7-10
			c-1.6-3.8-2.4-7.9-2.4-12.2c0-4.3,0.8-8.3,2.4-12.1c1.6-3.8,3.9-7.1,6.7-9.9c2.9-2.8,6.2-5,10-6.7c3.8-1.6,7.9-2.4,12.2-2.4
			c4.2,0,8.1,0.8,11.9,2.4c3.7,1.6,7,3.7,9.9,6.4c2.9,2.7,5.1,5.8,6.8,9.4c1.7,3.6,2.5,7.3,2.6,11.3c0,1.5-0.5,2.8-1.5,3.8
			c-1,1-2.1,1.6-3.4,1.8h-46.9c0.5,2.5,1.3,4.8,2.5,6.9c1.2,2.1,2.7,3.9,4.5,5.4c1.8,1.5,3.9,2.7,6.2,3.5c2.3,0.8,4.8,1.3,7.4,1.3
			c2.7,0,5.3-0.4,7.8-1.3c2.5-0.9,4.6-2.3,6.4-4.1c0.6-0.6,1.2-1,1.9-1.5c0.7-0.4,1.4-0.6,2.2-0.6c1.4,0,2.6,0.5,3.6,1.6
			c1,1,1.6,2.3,1.6,3.6c0,1.5-0.6,2.8-1.8,3.9c-2.8,2.8-6.1,5-9.8,6.5C-477.1-1351-481-1350.3-485.2-1350.3z M-485.2-1402.4
			c-2.6,0-5,0.4-7.2,1.2c-2.2,0.8-4.2,1.9-6.1,3.4c-1.8,1.5-3.3,3.2-4.6,5.1c-1.3,2-2.1,4.1-2.6,6.5h40.8c-0.5-2.3-1.4-4.5-2.6-6.5
			c-1.3-2-2.8-3.7-4.5-5.1c-1.8-1.5-3.8-2.6-6-3.4C-480.3-1402-482.7-1402.4-485.2-1402.4z"/>
		<path class="st4" d="M-444.8-1431.5c0-1.4,0.5-2.5,1.6-3.5c1-1,2.3-1.5,3.6-1.5c1.3,0,2.5,0.5,3.5,1.5c1,1,1.6,2.1,1.6,3.5v75.7
			c0,1.4-0.5,2.5-1.6,3.5c-1,1-2.2,1.5-3.5,1.5c-1.4,0-2.6-0.5-3.6-1.5c-1-1-1.6-2.1-1.6-3.5V-1431.5z"/>
	</g>
</g>
<g>
	<rect x="585" y="-1794.8" width="1760.8" height="542.9"/>
	<path class="st0" d="M1730.9-1763.6"/>
	<g>
		<path class="st1" d="M2001.5-1411.5c-25.4-16.9-45.4-42.4-55.3-72.4c-7.3-22.2-11-47-10.6-71.9c0.4-24.4,4.7-48.4,12.4-69.2
			c5.3-14.3,12.1-27.7,20.2-39.8c16.6-25,38.5-44.8,63.4-57.2c6.4-3.2,12.7-6.1,19.5-8.3c20.5-6.5,47.6-6.3,61.4,13.2
			c6,8.5,9,18.1,8.8,26c-1.1,47.8,9,58.5,28.8,76.8c25.1,23.2,31.6,53.6,35.6,78.9c4.7,29.7-1.5,58.7-18.4,86.1
			c-4.5,7.4-9.6,14.2-15,20.3c-9.9,11.2-21.2,20.4-33.4,26.9c-10,5.4-20.5,9.1-31.3,10.9c-1.8,0.3-3.7,0.6-5.6,0.8
			c-10.1,1.2-20.4,0.8-31-1.1C2033.2-1394.6,2016.4-1401.5,2001.5-1411.5z"/>
		<path class="st2" d="M2129.8-1637.7c-39,36.9-40.8,172,22.4,208.3c0,0,35-33.4,35-91.9c0-28.7-10.9-69-36.1-93.9
			C2128.2-1637.7,2129.8-1637.7,2129.8-1637.7z"/>
		<path class="st3" d="M2068-1731.5c0.1-2.7,0.2-4.9-20.5,2.4c-4.7,1.7-12.4,5.3-17.8,8c-25.8,12.8-51.5,37.6-68.1,66.8
			c-17.4,30.6-25.2,65.9-25.9,92.9c-1.8,70.3,21.4,113.6,58.3,144.9c14.6,12.3,35.2,20.7,53.3,24.4c19.1,4,34.4,2.7,35.1,1.7
			c5.9-8.4-107.2-47-111.7-157.3C1966.9-1642.7,2067.8-1716.3,2068-1731.5z"/>
	</g>
	<rect x="608" y="-1767.2" class="st6" width="1579.2" height="661.6"/>
	<text transform="matrix(1 0 0 1 608 -1411.6775)" class="st4 st7 st8">mang</text>
	<rect x="1903.2" y="-1374.1" class="st6" width="322.5" height="107.2"/>
	<text transform="matrix(1 0 0 1 1903.1704 -1288.9418)" class="st4 st7 st9">hostel</text>
</g>
<g>
	<rect x="87.2" y="-800.9" class="st1" width="1760.8" height="542.9"/>
	<path class="st0" d="M1233.1-769.8"/>
	<g>
		<path class="st5" d="M1503.7-417.6c-25.4-16.9-45.4-42.4-55.3-72.4c-7.3-22.2-11-47-10.6-71.9c0.4-24.4,4.7-48.4,12.4-69.2
			c5.3-14.3,12.1-27.7,20.2-39.8c16.6-25,38.5-44.8,63.4-57.2c6.4-3.2,12.7-6.1,19.5-8.3c20.5-6.5,47.6-6.3,61.4,13.2
			c6,8.5,9,18.1,8.8,26c-1.1,47.8,9,58.5,28.8,76.8c25.1,23.2,31.6,53.6,35.6,78.9c4.7,29.7-1.5,58.7-18.4,86.1
			c-4.5,7.4-9.6,14.2-15,20.3c-9.9,11.2-21.2,20.4-33.4,26.9c-10,5.4-20.5,9.1-31.3,10.9c-1.8,0.3-3.7,0.6-5.6,0.8
			c-10.1,1.2-20.4,0.8-31-1.1C1535.4-400.7,1518.6-407.7,1503.7-417.6z"/>
		<path d="M1632-643.9c-39,36.9-40.8,172,22.4,208.3c0,0,35-33.4,35-91.9c0-9.5-3.2-32.9-11.5-54.5c-5.9-15.4-15.6-28-25.3-38.3
			c-3.1-3.3-6.2-5.7-8.5-8.1C1632.8-640.2,1632-643.9,1632-643.9z"/>
		<path d="M1570.3-735.4c0.1-2.7,0.1-7.1-20.6,0.2c-4.7,1.7-12.4,5.3-17.8,8c-25.8,12.8-51.5,37.6-68.1,66.8
			c-17.4,30.6-25.2,65.9-25.9,92.9c-1.8,70.3,21.4,113.6,58.3,144.9c14.6,12.3,35.2,20.7,53.3,24.4c19.1,4,35.3,2,36.1,1
			c5.9-8.4-108.1-46.3-112.6-156.6C1469.1-648.9,1570-720.2,1570.3-735.4z"/>
	</g>
	<rect x="110.2" y="-773.4" class="st6" width="1579.2" height="661.6"/>
	<text transform="matrix(1 0 0 1 110.191 -417.8366)" class="st7 st8">mang</text>
	<rect x="1405.4" y="-380.3" class="st6" width="322.5" height="107.2"/>
	<text transform="matrix(1 0 0 1 1405.3615 -295.1013)" class="st7 st9">hostel</text>
</g>
<g>
	<rect x="-2062.9" y="-405" class="st3" width="1760.8" height="542.9"/>
	<path class="st0" d="M-917-373.9"/>
	<g>
		<path class="st5" d="M-646.5-21.7c-25.4-16.9-45.4-42.4-55.3-72.4c-7.3-22.2-11-47-10.6-71.9c0.4-24.4,4.7-48.4,12.4-69.2
			c5.3-14.3,12.1-27.7,20.2-39.8c16.6-25,38.5-44.8,63.4-57.2c6.4-3.2,12.7-6.1,19.5-8.3c20.5-6.5,47.6-6.3,61.4,13.2
			c6,8.5,9,18.1,8.8,26c-1.1,47.8,9,58.5,28.8,76.8c25.1,23.2,31.6,53.6,35.6,78.9c4.7,29.7-1.5,58.7-18.4,86.1
			c-4.5,7.4-9.6,14.2-15,20.3c-9.9,11.2-21.2,20.4-33.4,26.9c-10,5.4-20.5,9.1-31.3,10.9c-1.8,0.3-3.7,0.6-5.6,0.8
			c-10.1,1.2-20.4,0.8-31-1.1C-614.7-4.8-631.5-11.8-646.5-21.7z"/>
		<path d="M-518.1-248c-39,36.9-40.8,172,22.4,208.3c0,0,35-33.4,35-91.9c0-9.5-3.2-32.9-11.5-54.5c-5.9-15.4-15.6-28-25.3-38.3
			c-3.1-3.3-6.2-5.7-8.5-8.1C-517.3-244.3-518.1-248-518.1-248z"/>
		<path d="M-579.8-339.5c0.1-2.7,0.1-7.1-20.6,0.2c-4.7,1.7-12.4,5.3-17.8,8c-25.8,12.8-51.5,37.6-68.1,66.8
			c-17.4,30.6-25.2,65.9-25.9,92.9c-1.8,70.3,21.4,113.6,58.3,144.9c14.6,12.3,35.2,20.7,53.3,24.4c19.1,4,35.3,2,36.1,1
			c5.9-8.4-108.1-46.3-112.6-156.6C-681-253-580.1-324.3-579.8-339.5z"/>
	</g>
	<rect x="-2039.9" y="-377.5" class="st6" width="1579.2" height="661.6"/>
	<text transform="matrix(1 0 0 1 -2039.9349 -21.945)" class="st7 st8">mang</text>
	<rect x="-744.8" y="15.6" class="st6" width="322.5" height="107.2"/>
	<text transform="matrix(1 0 0 1 -744.7645 100.7904)" class="st7 st9">hostel</text>
</g>
<g>
	<path class="st0" d="M1105.2-20.5"/>
	<g>
		<path class="st5" d="M1375.7,331.7c-25.4-16.9-45.4-42.4-55.3-72.4c-7.3-22.2-11-47-10.6-71.9c0.4-24.4,4.7-48.4,12.4-69.2
			c5.3-14.3,12.1-27.7,20.2-39.8c16.6-25,38.5-44.8,63.4-57.2c6.4-3.2,12.7-6.1,19.5-8.3c20.5-6.5,47.6-6.3,61.4,13.2
			c6,8.5,9,18.1,8.8,26c-1.1,47.8,9,58.5,28.8,76.8c25.1,23.2,31.6,53.6,35.6,78.9c4.7,29.7-1.5,58.7-18.4,86.1
			c-4.5,7.4-9.6,14.2-15,20.3c-9.9,11.2-21.2,20.4-33.4,26.9c-10,5.4-20.5,9.1-31.3,10.9c-1.8,0.3-3.7,0.6-5.6,0.8
			c-10.1,1.2-20.4,0.8-31-1.1C1407.5,348.6,1390.6,341.6,1375.7,331.7z"/>
		<path d="M1504.1,105.5c-39,36.9-40.8,172,22.4,208.3c0,0,35-33.4,35-91.9c0-9.5-3.2-32.9-11.5-54.5c-5.9-15.4-15.6-28-25.3-38.3
			c-3.1-3.3-6.2-5.7-8.5-8.1C1504.9,109.2,1504.1,105.5,1504.1,105.5z"/>
		<path d="M1442.3,13.9c0.1-2.7,0.1-7.1-20.6,0.2c-4.7,1.7-12.4,5.3-17.8,8c-25.8,12.8-51.5,37.6-68.1,66.8
			c-17.4,30.6-25.2,65.9-25.9,92.9c-1.8,70.3,21.4,113.6,58.3,144.9c14.6,12.3,35.2,20.7,53.3,24.4c19.1,4,35.3,2,36.1,1
			c5.9-8.4-108.1-46.3-112.6-156.6C1341.2,100.5,1442.1,29.1,1442.3,13.9z"/>
	</g>
	<rect x="-17.8" y="-24" class="st6" width="1579.2" height="661.6"/>
	<text transform="matrix(1 0 0 1 -17.7679 331.4976)" class="st7 st8">mang</text>
	<rect x="1277.4" y="369.1" class="st6" width="322.5" height="107.2"/>
	<text transform="matrix(1 0 0 1 1277.4026 454.2332)" class="st7 st9">hostel</text>
</g>
<rect x="3042.5" y="-112.2" class="st6" width="3241.4" height="181.4"/>
<text transform="matrix(1 0 0 1 3887.2017 10.6265)" style="font-family:'HelveticaNeue-Medium'; font-size:172px;">Propuestas de logo</text>
<rect x="3042.5" y="431.6" class="st6" width="3241.4" height="181.4"/>
<text transform="matrix(1 0 0 1 4330.6245 503.0331)" style="font-family:'HelveticaNeue-Medium'; font-size:100px;">Tipos de Letra</text>
<g>
	<path class="st0" d="M4158.1,615.9"/>
	<g>
		<path class="st1" d="M4373.4,896.2c-20.2-13.4-36.1-33.7-44-57.6c-5.8-17.6-8.7-37.4-8.4-57.2c0.3-19.5,3.7-38.5,9.8-55.1
			c4.2-11.4,9.6-22,16.1-31.7c13.2-19.9,30.7-35.7,50.5-45.5c5.1-2.5,10.1-4.9,15.5-6.6c16.3-5.2,37.9-5,48.8,10.5
			c4.8,6.7,7.2,14.4,7,20.7c-0.9,38.1,7.2,46.6,22.9,61.1c20,18.5,25.2,42.6,28.4,62.8c3.7,23.6-1.2,46.7-14.7,68.5
			c-3.6,5.9-7.6,11.3-12,16.2c-7.9,9-16.9,16.2-26.6,21.4c-8,4.3-16.3,7.2-24.9,8.7c-1.5,0.3-2.9,0.5-4.4,0.6
			c-8,0.9-16.3,0.6-24.7-0.9C4398.6,909.6,4385.2,904.1,4373.4,896.2z"/>
		<path class="st2" d="M4475.5,716.1c-31,29.4-32.5,136.9,17.9,165.8c0,0,27.9-26.6,27.9-73.1c0-22.9-8.6-54.9-28.8-74.7
			C4474.2,716.1,4475.5,716.1,4475.5,716.1z"/>
		<path class="st3" d="M4426.3,641.5c0-2.1,0.1-3.9-16.3,1.9c-3.8,1.3-9.9,4.3-14.2,6.4c-20.5,10.2-40.9,29.9-54.2,53.1
			c-13.9,24.4-20,52.5-20.6,73.9c-1.4,56,17,90.4,46.4,115.3c11.6,9.8,28,16.4,42.4,19.4c15.2,3.1,27.4,2.2,28,1.3
			c4.7-6.7-85.3-37.4-88.9-125.2C4345.9,712.2,4426.1,653.6,4426.3,641.5z"/>
	</g>
	<rect x="3264.4" y="613.1" class="st6" width="1256.8" height="526.5"/>
	<text transform="matrix(1 0 0 1 3264.3865 914.2665)" style="font-family:'zAristaLight'; font-size:471.9274px;">mang</text>
	<rect x="4292.7" y="925.9" class="st6" width="256.7" height="85.3"/>
	<text transform="matrix(1 0 0 1 4292.7349 987.3603)" style="font-family:'zAristaLight'; font-size:96.2955px;">hostel</text>
</g>
<g>
	<path class="st0" d="M5639.7,615.9"/>
	<g>
		<path class="st1" d="M5855,896.2c-20.2-13.4-36.1-33.7-44-57.6c-5.8-17.6-8.7-37.4-8.4-57.2c0.3-19.5,3.7-38.5,9.8-55.1
			c4.2-11.4,9.6-22,16.1-31.7c13.2-19.9,30.7-35.7,50.5-45.5c5.1-2.5,10.1-4.9,15.5-6.6c16.3-5.2,37.9-5,48.8,10.5
			c4.8,6.7,7.2,14.4,7,20.7c-0.9,38.1,7.2,46.6,22.9,61.1c20,18.5,25.2,42.6,28.4,62.8c3.7,23.6-1.2,46.7-14.7,68.5
			c-3.6,5.9-7.6,11.3-12,16.2c-7.9,9-16.9,16.2-26.6,21.4c-8,4.3-16.3,7.2-24.9,8.7c-1.5,0.3-2.9,0.5-4.4,0.6
			c-8,0.9-16.3,0.6-24.7-0.9C5880.3,909.6,5866.9,904.1,5855,896.2z"/>
		<path class="st2" d="M5957.2,716.1c-31,29.4-32.5,136.9,17.9,165.8c0,0,27.9-26.6,27.9-73.1c0-22.9-8.6-54.9-28.8-74.7
			C5955.9,716.1,5957.2,716.1,5957.2,716.1z"/>
		<path class="st3" d="M5908,641.5c0-2.1,0.1-3.9-16.3,1.9c-3.8,1.3-9.9,4.3-14.2,6.4c-20.5,10.2-40.9,29.9-54.2,53.1
			c-13.9,24.4-20,52.5-20.6,73.9c-1.4,56,17,90.4,46.4,115.3c11.6,9.8,28,16.4,42.4,19.4c15.2,3.1,27.4,2.2,28,1.3
			c4.7-6.7-85.3-37.4-88.9-125.2C5827.5,712.2,5907.8,653.6,5908,641.5z"/>
	</g>
	<rect x="4746.1" y="613.1" class="st6" width="1256.8" height="526.5"/>
	<text transform="matrix(1 0 0 1 4746.0537 896.0221)" class="st7" style="font-size:401.8943px;">mang</text>
	<rect x="5776.8" y="925.9" class="st6" width="256.7" height="85.3"/>
	<text transform="matrix(1 0 0 1 5776.79 993.6979)" class="st7" style="font-size:96.2955px;">hostel</text>
</g>
<rect x="3042.5" y="1305" class="st6" width="3241.4" height="181.4"/>
<text transform="matrix(1 0 0 1 4229.6772 1376.4053)" style="font-family:'HelveticaNeue-Medium'; font-size:100px;">Sobre fondo negro</text>
<g>
	<rect x="3943.2" y="1496.4" width="1464" height="451.4"/>
	<path class="st0" d="M4895.9,1522.3"/>
	<g>
		<path class="st1" d="M5120.8,1815.1c-21.1-14-37.7-35.2-46-60.2c-6.1-18.4-9.1-39.1-8.8-59.8c0.3-20.3,3.9-40.2,10.3-57.6
			c4.4-11.9,10.1-23,16.8-33.1c13.8-20.7,32-37.3,52.7-47.5c5.3-2.7,10.6-5.1,16.2-6.9c17-5.4,39.6-5.2,51,11c5,7,7.5,15,7.3,21.6
			c-0.9,39.8,7.5,48.7,23.9,63.8c20.9,19.3,26.3,44.5,29.6,65.6c3.9,24.7-1.3,48.8-15.3,71.6c-3.8,6.1-8,11.8-12.5,16.9
			c-8.3,9.4-17.6,16.9-27.8,22.4c-8.4,4.5-17.1,7.5-26,9.1c-1.5,0.3-3.1,0.5-4.6,0.7c-8.4,1-17,0.7-25.8-0.9
			C5147.2,1829.1,5133.3,1823.3,5120.8,1815.1z"/>
		<path class="st2" d="M5227.5,1627c-32.4,30.7-33.9,143,18.7,173.2c0,0,29.1-27.8,29.1-76.4c0-23.9-9-57.4-30-78
			C5226.2,1627,5227.5,1627,5227.5,1627z"/>
		<path class="st3" d="M5176.2,1549c0-2.2,0.1-4.1-17,2c-3.9,1.4-10.3,4.4-14.8,6.7c-21.4,10.6-42.8,31.3-56.6,55.5
			c-14.5,25.5-20.9,54.8-21.5,77.2c-1.5,58.5,17.8,94.5,48.5,120.5c12.1,10.2,29.3,17.2,44.3,20.3c15.9,3.3,28.6,2.3,29.2,1.4
			c4.9-7-89.1-39.1-92.9-130.8C5092.1,1622.8,5175.9,1561.6,5176.2,1549z"/>
	</g>
	<rect x="3962.3" y="1519.3" class="st6" width="1313" height="550.1"/>
	<text transform="matrix(1 0 0 1 3962.2893 1814.8906)" class="st4 st7" style="font-size:419.8592px;">mang</text>
	<rect x="5039.1" y="1846.1" class="st6" width="268.2" height="89.1"/>
	<text transform="matrix(1 0 0 1 5039.1006 1916.9336)" class="st4 st7" style="font-size:100.5999px;">hostel</text>
</g>
<rect x="3054.5" y="2423.6" class="st6" width="3241.4" height="181.4"/>
<text transform="matrix(1 0 0 1 3507.0347 2494.9978)" style="font-family:'HelveticaNeue-Medium'; font-size:100px;">Sobre fondo de colores no contrastantes o iguales</text>
<g>
	<rect x="3322.8" y="2735.9" class="st3" width="1266.2" height="390.4"/>
	<path class="st0" d="M4146.9,2758.2"/>
	<g>
		<path class="st5" d="M4341.4,3011.5c-18.3-12.2-32.6-30.5-39.7-52.1c-5.3-15.9-7.9-33.8-7.6-51.7c0.3-17.6,3.4-34.8,8.9-49.8
			c3.8-10.3,8.7-19.9,14.5-28.6c11.9-17.9,27.7-32.2,45.6-41.1c4.6-2.3,9.2-4.4,14-6c14.7-4.7,34.2-4.5,44.1,9.5
			c4.3,6.1,6.5,13,6.3,18.7c-0.8,34.4,6.5,42.1,20.7,55.2c18.1,16.7,22.7,38.5,25.6,56.7c3.4,21.4-1.1,42.2-13.3,61.9
			c-3.3,5.3-6.9,10.2-10.8,14.6c-7.1,8.1-15.3,14.7-24,19.4c-7.2,3.9-14.7,6.5-22.5,7.9c-1.3,0.2-2.7,0.4-4,0.6
			c-7.3,0.8-14.7,0.6-22.3-0.8C4364.2,3023.6,4352.1,3018.6,4341.4,3011.5z"/>
		<path d="M4433.7,2848.8c-28,26.5-29.3,123.7,16.1,149.8c0,0,25.2-24,25.2-66.1c0-6.9-2.3-23.7-8.2-39.2
			c-4.2-11.1-11.2-20.1-18.2-27.5c-2.3-2.4-4.5-4.1-6.1-5.9C4434.3,2851.5,4433.7,2848.8,4433.7,2848.8z"/>
		<path d="M4389.3,2783c0-1.9,0.1-5.1-14.8,0.1c-3.4,1.2-8.9,3.8-12.8,5.8c-18.5,9.2-37,27-48.9,48c-12.5,22-18.1,47.4-18.6,66.8
			c-1.3,50.6,15.4,81.7,41.9,104.2c10.5,8.9,25.3,14.9,38.3,17.5c13.7,2.8,25.4,1.4,25.9,0.7c4.2-6-77.7-33.3-81-112.6
			C4316.6,2845.2,4389.1,2793.9,4389.3,2783z"/>
	</g>
	<rect x="3339.3" y="2755.7" class="st6" width="1135.6" height="475.8"/>
	<text transform="matrix(1 0 0 1 3339.3315 3011.3481)" class="st7" style="font-size:363.1534px;">mang</text>
	<rect x="4270.7" y="3038.4" class="st6" width="231.9" height="77.1"/>
	<text transform="matrix(1 0 0 1 4270.7095 3099.6099)" class="st7" style="font-size:87.013px;">hostel</text>
</g>
<g>
	<rect x="4737.3" y="2735.9" class="st2" width="1266.2" height="390.4"/>
	<path class="st0" d="M5561.3,2758.2"/>
	<g>
		<path class="st5" d="M5755.9,3011.5c-18.3-12.2-32.6-30.5-39.7-52.1c-5.3-15.9-7.9-33.8-7.6-51.7c0.3-17.6,3.4-34.8,8.9-49.8
			c3.8-10.3,8.7-19.9,14.5-28.6c11.9-17.9,27.7-32.2,45.6-41.1c4.6-2.3,9.2-4.4,14-6c14.7-4.7,34.2-4.5,44.1,9.5
			c4.3,6.1,6.5,13,6.3,18.7c-0.8,34.4,6.5,42.1,20.7,55.2c18.1,16.7,22.7,38.5,25.6,56.7c3.4,21.4-1.1,42.2-13.3,61.9
			c-3.3,5.3-6.9,10.2-10.8,14.6c-7.1,8.1-15.3,14.7-24,19.4c-7.2,3.9-14.7,6.5-22.5,7.9c-1.3,0.2-2.7,0.4-4,0.6
			c-7.3,0.8-14.7,0.6-22.3-0.8C5778.7,3023.6,5766.6,3018.6,5755.9,3011.5z"/>
		<path d="M5848.2,2848.8c-28,26.5-29.3,123.7,16.1,149.8c0,0,25.2-24,25.2-66.1c0-6.9-2.3-23.7-8.2-39.2
			c-4.2-11.1-11.2-20.1-18.2-27.5c-2.3-2.4-4.5-4.1-6.1-5.9C5848.8,2851.5,5848.2,2848.8,5848.2,2848.8z"/>
		<path d="M5803.8,2783c0-1.9,0.1-5.1-14.8,0.1c-3.4,1.2-8.9,3.8-12.8,5.8c-18.5,9.2-37,27-48.9,48c-12.5,22-18.1,47.4-18.6,66.8
			c-1.3,50.6,15.4,81.7,41.9,104.2c10.5,8.9,25.3,14.9,38.3,17.5c13.7,2.8,25.4,1.4,25.9,0.7c4.2-6-77.7-33.3-81-112.6
			C5731,2845.2,5803.6,2793.9,5803.8,2783z"/>
	</g>
	<rect x="4753.8" y="2755.7" class="st6" width="1135.6" height="475.8"/>
	<text transform="matrix(1 0 0 1 4753.8091 3011.3481)" class="st7" style="font-size:363.1534px;">mang</text>
	<rect x="5685.2" y="3038.4" class="st6" width="231.9" height="77.1"/>
	<text transform="matrix(1 0 0 1 5685.187 3099.6099)" class="st7" style="font-size:87.013px;">hostel</text>
</g>
<g>
	<rect x="4042.1" y="3426.6" class="st1" width="1266.2" height="390.4"/>
	<path class="st0" d="M4866.1,3449"/>
	<g>
		<path class="st5" d="M5060.6,3702.2c-18.3-12.2-32.6-30.5-39.7-52.1c-5.3-15.9-7.9-33.8-7.6-51.7c0.3-17.6,3.4-34.8,8.9-49.8
			c3.8-10.3,8.7-19.9,14.5-28.6c11.9-17.9,27.7-32.2,45.6-41.1c4.6-2.3,9.2-4.4,14-6c14.7-4.7,34.2-4.5,44.1,9.5
			c4.3,6.1,6.5,13,6.3,18.7c-0.8,34.4,6.5,42.1,20.7,55.2c18.1,16.7,22.7,38.5,25.6,56.7c3.4,21.4-1.1,42.2-13.3,61.9
			c-3.3,5.3-6.9,10.2-10.8,14.6c-7.1,8.1-15.3,14.7-24,19.4c-7.2,3.9-14.7,6.5-22.5,7.9c-1.3,0.2-2.7,0.4-4,0.6
			c-7.3,0.8-14.7,0.6-22.3-0.8C5083.5,3714.4,5071.4,3709.4,5060.6,3702.2z"/>
		<path d="M5152.9,3539.6c-28,26.5-29.3,123.7,16.1,149.8c0,0,25.2-24,25.2-66.1c0-6.9-2.3-23.7-8.2-39.2
			c-4.2-11.1-11.2-20.1-18.2-27.5c-2.3-2.4-4.5-4.1-6.1-5.9C5153.5,3542.2,5152.9,3539.6,5152.9,3539.6z"/>
		<path d="M5108.6,3473.7c0-1.9,0.1-5.1-14.8,0.1c-3.4,1.2-8.9,3.8-12.8,5.8c-18.5,9.2-37,27-48.9,48c-12.5,22-18.1,47.4-18.6,66.8
			c-1.3,50.6,15.4,81.7,41.9,104.2c10.5,8.9,25.3,14.9,38.3,17.5c13.7,2.8,25.4,1.4,25.9,0.7c4.2-6-77.7-33.3-81-112.6
			C5035.8,3535.9,5108.4,3484.6,5108.6,3473.7z"/>
	</g>
	<rect x="4058.6" y="3446.4" class="st6" width="1135.6" height="475.8"/>
	<text transform="matrix(1 0 0 1 4058.5708 3702.0881)" class="st7" style="font-size:363.1534px;">mang</text>
	<rect x="4989.9" y="3729.1" class="st6" width="231.9" height="77.1"/>
	<text transform="matrix(1 0 0 1 4989.9482 3790.3489)" class="st7" style="font-size:87.013px;">hostel</text>
</g>
</svg>
